{
  "success": true,
  "message": "成功",
  "data": {
    "content": [
      {
        "name": "安徽新闻联播2025年03月28日播出版",
        "created": "2025-03-29T10:59:03.000+00:00",
        "content": "嗯\n远、\n嗯\n嗯\n各位晚上好，欢迎收看安徽新闻联播。\n应天是3月28号星期五，农历2月29。\n首先请看内容提要，\n福建省党政代表团来皖考察，深化交流协作，促进互利共赢，携手谱写玩命合作新篇章。梁言顺、周祖翼、王新宪、召龙参加，\n王清宪主持召开省政府第65次常务会议，王新现在省政府专题会议上强调，推进政产学研精服用融合发展。\n省十四届人大常委会第十五次会议。\n安徽各地推动学习教育有序有效开展，2025春游江淮请来采风活动正式启动，本台记者实地走访精品路线，带您感受春日里的江淮\n来看新闻的详细内容。\n3月27号至28号，福建省委书记周祖翼省长赵龙率，福建省党政代表团来安徽考察，\n深入学习贯彻习近平总书记重要讲话指示精神，\n积极服务和融入国家重大发展战略，\n深化交流协作，促进互利共赢，\n携手谱写完美合作新篇章。\n安徽省委书记梁言顺省长王清宪陪同，\n福建省领导崔永辉、郭宁宁、吴偕林、苗延红、林瑞良、\n王金福、\n安徽省领导最高云、孙红梅、单向前任清华、孙勇，\n中国科大党委书记舒歌群参加相关活动。\n福建省党政代表团走进安徽创新馆，中国科大先进技术研究院，\n中安创谷科技园，\n参观创新成果展，\n考查科技大市场科技成果沿途下蛋，科创服务平台建设等情况。\n对安徽坚持科技打头阵，下好创新先手棋，推进科技创新和产业创新深度融合的\n工作成效表示肯定。\n来到骆岗公园代表团，听取公园规划建设运营等介绍，\n实地参观园博小镇安徽元，\n围绕科学规划、城市生产生活生态空间进行交流探讨。\n在中电信量子集团、科大讯飞和阳光电源股份有限公司\n代表团观看产品演示，考察企业技术研发、场景应用、市场开拓等情况，\n深入了解安徽培育新兴产业未来产业的经验做法，\n表示要加强创新链产业链协同联动，携手构建现代化产业体系。\n在两地交流中，大家认为，\n安徽与福建地缘相近，人文相亲，长久以来保持着密切的交流合作。\n当前安徽正在聚力打造具有重要影响力的三地一区，\n福建正在加快建设机制活产业优、百姓富、生态美的新福建，\n两省优势互补，合作共赢的空间广阔。\n希望以此次考察交流为契机，围绕培育发展新质生产力，深化产学研用跨区域协作，\n加强科技金融等体制机制改革融通对接，携手推进高层次协同开放，\n促进文化旅游业联动发展，共同营造市场统一开放，要素自由流动的发展环境，\n不断推动两省合作向更深层次、更宽领域更高水平迈进，\n为推进中国式现代化作出更大贡献。\n本台消息3月27号省长王清宪主持召开省政府第65次常务会议，审议创建市场化、法制化、国际化一流营商环境对标提升举措，2015版通过安徽省提振消费专项行动实施方案等。\n会议指出，好的营商环境就是生产力竞争力，要坚持市场化、法治化、国际化，对照学习沪苏浙等地先进做法，积极开展营商环境首创性差异化改革，持续打造竞争有序的市场环境，保障有力的要素环境，稳定公正的法制环境，规范高效的政务环境，践诺守信的社会环境，协同包容的创新环境，融通便捷的开放环境，\n形成更多有要素感召力的营商环境标杆和品牌。\n要突出企业有感，深化科技富能，畅通企业诉求反映渠道。\n要完善营商环境工作推进机制清单化，抓好举措落地，全方位扩大宣传解读，推动全省营商环境整体优化提升。\n会议强调消费是拉动经济增长的主引擎，大力提振消费是当前经济工作的重中之重，\n要充分激活有潜力的消费需求，全面增强消费对经济增长的基础性作用。\n要提升消费能力，促进居民收入合理增长，提高教育、医疗、养老、社保等公共服务水平，减少消费后顾之忧。\n要顺应消费升级趋势，扩大新型消费，培育更多消费新增长点。\n要优化消费环境，完善城乡消费设施，建设知名消费地标，打造新型消费空间，发展人工智能加消费。\n要实施消费限制措施，清理优化行动，优化大型群众性活动审批许可，未消费需求持续释放，创造更好条件。\n会议还研究了其他事项。\n3月26号下午，省长王清宪主持召开省政府专题会议，研究政产学研金服用融合发展工作。他强调要深入贯彻习近平总书记关于发展新质生产力的重要论述和考察安徽重要讲话精神，按照省委部署把握科技创新和产业创新融合发展规律，加快推进政产学研精服用融合发展，提高全要素生产率，在发展新质生产力上展现更大作为。\n会议听取了省发展改革委、省科技厅、数字安徽公司等单位汇报，就进一步推进融合发展进行了讨论。\n王清宪对下一步工作提出明确要求，一要强化市场意识，融合理念、平台思维，以体制机制创新为牵引，加快构建政府推动、产业主导、人才支撑、科技引领、金融赋能服务提升、应用牵引的融合机制，\n打造主体高效协同，要做极具融通的创新生态。\n二要扎实推进融合发展年度重点任务，深入实施产学研产业用融合等行动。\n三要加快成立科学家、工程师、产品经理等参加的协会，搭建常态化的互动交流对接合作平台，形成市场研发工程化产业创新链条。\n敖寺要建好用好融合服务平台，借助人工智能构建信息导入研判、分诊对接、服务跟踪落地，持续赋能全链条服务机制，融入高校办成一件事服务体系，\n实现创新主体找服务，服务找创新主体双向对接。\n五要完善高效协同的工作推进机制，加强指挥调度，开展评估督导遴选推广典型案例，确保各项任务落细落实。\n副省长任清华参加，\n今天省十四届人大常委会第十五次会议在合肥闭幕，\n省人大常委会副主任陶明伦主持闭幕会并讲话，副主任张运生、何树山、王翠凤阳、光荣、刘明波、韩军、魏晓明出席会议，表决通过了新修订的安徽省法律援助条例，表决通过了安徽省实施中华人民共和国航道法办法，安徽省传统村落保护传承利用条例，\n审查批准了合肥市机动车公共停车场条例，铜陵市既有多层住宅加装电梯条例，\n表决通过了关于个别代表的代表资格审查报告和人事任免案，并依法组织了宪法宣誓。\n会议指出，省人大常委会组成人员要带头学习贯彻习近平总书记重要讲话精神，深刻领会因地制宜发展心智生产力，落实国家重大发展战略，推进城乡融合发展等部署要求，坚决做到总书记怎么说我们就怎么做。\n要带头贯彻落实十四届全国人大三次会议明确的各项任务，在服务中心大局上履职尽责，推动高质量完成十四五规划目标任务。\n要带头贯彻实施新修改的代表法，强化代表能力建设，履职保障和管理监督，不断发展全过程人民民主安徽实践。\n要带头认真开展深入贯彻中央八项规定精神学习教育，以作风建设的新成效推动全面从严治党，以良好的工作作风汇聚团结奋斗的强大力量。\n省政府副省长孙永，省高院院长田云鹏，省检察院检察长宋文娟，省监委有关负责人等列席闭幕会。\n常委会会议期间，省人大常委会组成人员分组审议了有关法规草案，省政府专项工作报告等。\n今天上午省十四届人大常委会召开第53次主任会议，省人大常委会副主任陶明伦主持会议，\n副主任张运生、何树山、王翠凤阳、光荣、刘明波、韩军、魏晓明出席\n会议听取了关于安徽省法律援助条例修订草案，安徽省实施中华人民共和国航道法办法草案，\n安徽省传统村落保护传承利用条例草案审议结果的汇报。\n关于合肥、铜陵两个设区的市人大常委会报批准的两项法规审查结果的汇报，\n关于代表资格审查报告和人事任免案审议情况的汇报，\n决定将上述法规草案表决稿，批准法规的决议草案，关于个别代表的代表资格审查报告和人事任免案，\n提请省十四届人大常委会第十五次会议全体会议表决。\n今天下午由中共安徽省委宣传部主办，安徽广播电视台承办的2024心动安徽最美人物评选活动在合肥举行发布仪式。\n省委常委宣传部部长钱三雄，省人大常委会副主任刘明波，省政协副主席郑永飞出席。\n发布仪式现场揭晓2024年度10组心动安徽最美人物，这些先进典型，有的守护文化跟外有的情绪民生福祉，有的勇攀科技高峰，有的矢志报国奉献，\n以榜样的力量传播真善美，传递正能量，激励江淮儿女向上向善创先争优，在新时代新征程上奋力谱写中国是现代化安徽篇章。\n3月27号，省委政法委员会2025年第一次全体会议召开，会议强调要加强政法机关政治建设，扎实开展深入贯彻中央八项规定精神学习教育，持之以恒纠治四风。\n要依法打击电信网络诈骗等突出违法犯罪，扎实推进化解矛盾风险，维护社会稳定专项治理，以高水平法治服务保障安徽高质量发展。\n3月27号，\n省政府新闻办召开新闻发布会，安徽省发展改革委就加快服务业高质量发展若干政策，2025年相关情况进行了介绍，\n提出推动全省服务业发展一揽子增量措施，\n聚焦互联网服务、物流、供应链设计检测等6个重点领域的企业，最高奖励可达120万元，\n支持国际物流检验检测等领域重点企业加快发展，最高奖励可达100万元，同时支持各市发行服务券，\n享受省级资金30%~40%补助，为更好满足人民日益增长的精神文化需求，\n安徽聚焦文化演艺、会展赛事等重点领域给予最高80万元奖励。\n对于中国内地首店，安徽手电分别给予100万元50万元奖励，\n同时贴息支持银发经济、冰雪经济、商文旅体融合等领域重大项目，最高支持可达300万元。\n若干政策更加突出，提振服务消费，为人民群众提供多元化、时尚化、高端化的服务消费选择，更加突出供需两端发力，\n持续推进生产性服务业向专业化和价值链高端延伸，更加突出政策免生迹象，绩效协同激励。\n为提升服务业发展质量水平，安徽通过对省级服务业集聚创新区和省级以上物流枢纽基地内的重大服务业项目给予贴息补助，\n支持建设一批工业设计中心、检测认证中心、共性技术平台、中试基地，\n同时引导金融机构加大服务业重点领域信贷投放，\n距离培育完美消费新场景等最高补贴可达200万元，以创新赋能服务业发展。\n开展深入贯彻中央八项规定精神，学习教育是巩固深化主题教育和党纪学习教育成果，纵深推进。全面从严治党的重要举措，是进一步全面深化改革，推进中国式现代化的有力保障。从今天起本栏目推出锲而不舍落实中央八项规定精神专栏，展现安徽各地各部门各单位开展学习教育的工作进展和实际成效。\n六安市制定学习教育工作安排，引导全市党员干部锲而不舍贯彻中央八项规定及其实施细则精神，扎实开展学习研讨，从严查摆问题，抓实集中整治，自觉接受群众监督，一体推进学查改，\n以作风大转变促效能大提升，以供质量发展的实际，检验学习教育的实效。对开展深入贯彻中央八项规定精神学习教育。\n高度重视组建市级层面工作专班，抓好具体落实，注重在学习教育中解决群众急难愁盼，\n持续开展民生领域问题小切口专项整治，不断增强群众获得感、幸福感、安全感。\n芜湖市把握目标任务，着力在深学细悟，增强自觉上用力见效，再深挖细查，找准问题上用力见效，再深入整改，标本兼治上用力见效，再依靠群众开门教育上用力见效，真正把学习教育成果转化为推动高质量发展的实际成效，为加快建设省域副中心提供坚强作风保障。\n坚持从严从实，\n坚持问题导向，\n一体推进学查改，\n真抓实干，\n动真碰硬，标本兼治，\n把学习教育的成效及时转化为加快建设省域副中心的有效举措，\n让老百姓感受到加强作风建设带来的新气象新变化。\n亳州市对照党中央决策部署和省委工作要求，把开展深入贯彻中央八项规定精神学习教育作为一项重大政治任务，\n要求全市各级党组织把握目标要求，扎实开展学习教育，一体推进学查改，\nI突出，领导班子带头学，支部党员跟进学，丰富形式全面学，提高学习教育覆盖面时效性。\n开展深入贯彻中央八项规定精神学习教育，\n是党中央作出的重大部署，\n是今年党建工作的重点任务，从严从实查摆问题，坚决有力抓好整改整治，\n自觉接受群众监督，\n确保学友质量，查有力度，\n改有成效。\n安庆市要求各级党组织和广大党员干部扎实开展学习研讨，深入学习领会习近平总书记关于加强党的作风建设的重要论述和中央八项规定及其实施细则精神，\n确保学友质量查有力度改有成效，\n依靠群众开门教育，走好新时代党的群众路线，着力解决群众急难愁盼和基层亟待解决的突出问题。\n以高度政治自觉、思想自觉和行动自觉抓好学习教育，\n督促指导全市各级党组织和广大党员干部聚焦主题，\n注重实效，落实好学习研讨、查摆问题、集中整治、开门教育等4个方面工作安排，真正让中央八项规定精神落地生根。\n春游江淮千姿百态，2025年安徽省春游江淮，请您来集中采风活动今日正式启动，本台记者实地走访精品路线，带您感受春日里的大美江淮。\n忆往昔峥嵘岁月，赶紧朝盛世繁华，这里啊是位于巢湖之滨的渡江战役纪念馆，它的外形呢像一艘钢铁巨舰破浪前行，这里啊不仅承载着厚重的红色历史，还通过陈晶石的展览吸引了大批游客，\n让大家身临其境重温峥嵘岁月，从无数英雄故事中汲取奋进力量，\n一幅幅生动的历史图片，一件件珍贵的革命文物，一段段动人的先烈事迹。\n作为全国爱国主义教育示范基地，渡江战役纪念馆以及丰富的革命文物，运用全息投影，AA互动等技术，\n生动展现了1949年百万雄师过大江的壮阔历史，成为合肥文旅的一张亮丽名片。\n一进入馆内就让人有一种这个热血沸腾那种感觉，革命先辈\n给我们创造和平的这个世界，嗯他们做了艰苦的这个奋斗，现在的这个生活来之不易，我们要把这种精神继续弘扬下去。\n目前馆内珍藏文物是2200多件，展出956件，每年接待量大概在100多万人次，我们也是希望通过这一件件展物以及展板上的内容，还有数字化的展览形式，透支大家爱党爱国的情怀。\n春游江淮千姿百态，今年的合肥春游路线重点打造科创科普游，结合人文元素和自然风光，为游客全方位展现大美合肥。\n选取了一些柯文旅、商文旅以及农文旅的景点，然后进行了融合，希望全国的朋友们能够来到合肥打卡合肥，爱上合肥，春风拂过花浪翻滚，香气沁人心脾。\n这里是其文献的卢丽村，在我的身后是一片金灿灿的油菜花花海，\n油菜花的花瓣迎风舒展，为大地织就了金色的外衣，宛如一幅绝美的。\n田园画卷。今年祁门县油菜种植面积约2万亩，围绕农业增效、农村增美、农民增收，当地积极发展农旅融合产业，培育乡村旅游新业态新场景。\n随着油菜花的盛开，然后比平时我们翻了三倍左右，花期相遇寻味山河。今年春游记黄山市推出走花路踏春行话查去来躺赢返青。周五嘞春季文旅产品全域联动开展百场文旅活动。\n休宁县齐云山旅游区就开辟出日瑜伽夜游新模式，吸引游客愿意来留下来。\n这个打铁花让我很震撼，很有当地的特色，齐云山这边不管是风光很美，晚上这边呢文化娱乐活动也很多这个也有看到这边很多的非遗文化很美很美的，\n万亩梨园带克制一橙花香盈君来，昨晚2025春游江淮请您来宿州主场活动在砀山县举行，\n活动共设盛世玉春、文脉颂春、百花竞春、朝、魏艳春4个板块串联起国朝汉弗由梨花树下手艺人民俗展演等12项特色活动。\n依托春季赏花资源，融合互联网营销长期化企业，预计今年春运期间共接待游客500多万人次，拉动消费约6亿元左右。\n春风有信，花开有期，春日里的江淮千姿百态，邀您共赏。\n我现在是位于六安金安机场，今天这座现代化的航空枢纽正式开行，不仅缩短了六安与国内主要城市的时空距离，更将成为老区对外开放的新窗口，也标志着安徽综合交通网络再添新枢纽，总投资3.16亿元的潞安金安机场，位于六安市金安区应技开发区，占地约465亩，是一座具备10座以上商业载客飞行能力的A1类通用机场。\n项目自2017年启动以来，在3月11号正式取得机场使用许可证，\n目前已有安徽出众航空、安徽合肥零重力航空、北理工航空等多家企业与机场签订了合作协议。\n目前呢已经有。\n4家通航公司入驻了。\n机场一方面满足安徽一流航空。\n开展试飞维保的需要。\n同时。\n承担了我们华东地区航空培训、旅游观光应急。\n原短途运输等公共服务职能，作为皖中通用机场群布局之一。\n六安金安机场还将依托安徽应流集团，重点引进航空整机复合材料、航电系统关键零部件等研发制造企业，打造完整的通航产业链条，为安徽省低空经济发展注入新活力。\n金安机场紧邻合肥的城市群，也是我们未来提供应用的一个非常重要的场景，依托静安机场和一流的航空制造业，把机场的这个基础设施和运营管理的模式，作为我们未来先进航空器的一个验证，\n飞行这样的一个基地，把科技和产业完全打通，啊形成一个融合发展的好的局面。\n参考消息，3月27号以中国民企出海，为全球经济注入新活力为题，推出整版特稿，报道了安徽民营企业通过技术创新质量升级和绿色转型，不断丰富产品类型，提升产品质量与服务，活跃于全球贸易往来，为全球经济奔腾向前贡献中国智慧。\n更多资讯来看今日快报。\n工业和信息化部近日公布新一批国家绿色制造名单，安徽省新增国家级绿色工厂73家，绿色工业园区7家，\n绿色供应链管理企业时，E家总量居全国前列。\n嗯\n截至今年2月底，全省民营企业贷款余额达2.4万亿元，同比增长12%。新发放民营企业贷款占新发放企业类贷款比重达60%。\n今年以来安徽消费市场延续增长势头，1~2月份全省限额以上消费品零售额增长7.5%，比去年全年高2.1个百分点。\n吧\n2024年度个人所得税综合所得汇算清缴工作，自3月1号启动以来，截至3月25号共办理退税46.02万余笔，最高单日处理5.82万余笔，合计办理金额6.2亿元。\n嗯\n今年以来，安徽省启动新一轮农业机械报废更新补贴，截至目前使用超长期特别国债资金11,559万元，补贴报废农机57,228台，补贴农机机型从15类扩大至28类。\n农业农村部日前发布60条春季精品线路，安徽宣城市绩溪县徽风古韵春观花，\n芜湖市湾址区漫步花海春季休闲观光游，铜陵市义安区春季花雨漫享田园之旅，入选\n花\n长三角铁路清明小长假运输方案近日出台，今年清明假日运输从4月3号起至7号，预计发送旅客1760万人次。\n小长假运输期间，旅客列车开行总对数达1450对，为旅客踏青出游提供更多出行选择和运力保障。\n我们\n今天是第5个中华鲟保护日，安庆市举行2025年中华鲟增殖放流活动，现场放流国家一级重点保护野生动物中华鲟1万为国家二级重点保护野生动物腌制鱼2万为\n吧\n随着天气转暖，位于宣城市宣州区的扬子鳄，国家级自然保护区内的数千条扬子鳄即将结束冬眠，由室内暖房陆续运往露天饲养地。\n受冷空气影响，今天安庆市太湖县、岳西县、六安市霍山县部分山区出现降雪，\n安徽气象台预报受寒潮持续影响，全省气温将继续下降，明天至30号早晨，全省大部分地区最低气温2~6度，\n观众朋友，今天的安徽新闻联播播送完了，感谢。\n感谢收看，再见。\n再见。\n嗯\n嗯\n远。\n花"
      },
     ],
    "page": 0,
    "size": 10,
    "totalElements": 19,
    "totalPages": 2,
    "first": true,
    "last": false,
    "empty": false,
    "numberOfElements": 10
  }
}